for r in sections:
        for Ccap in capacityData:
                cap=1
                s=sorted(studentData,key=lambda row:int(row[r]))
                for cycle in range(1,11):
                   for i in s:
                            for j in preferenceData :
                                if j['fno']==i['fno']:
                                    for course in courseData:
                                        if j['pno']==str(cycle) and j['course']==course['name'] and Ccap['capacity']!=Ccap['fcapacity'] and i[r]!='-1':
                                            print(f"{i['fno']}  {i['name']} {i['rankA']}  {j['pno']}  {j['course']}  {j['cid']}")
                                            editData1(i['fno'],j['pno'],j['course'],j['cid'])
                                            cap+=1
                                            Ccap['fcapacity']=cap



sections=['A','B','C']
    count=0
    for rank in sections:
        s=sorted(studentData,key=lambda x:int(x[rank]))
        for stud in s:
            if int(stud[rank])>0 and int(stud['preference'])==0:
                preference=getPreference(stud['fno'])
                print(preference)
                course=getCourseList(rank)
                if preference !=-1: